<?xml version="1.0" encoding="UTF-8" standalone="no"?>
<gpx
xmlns="http://www.topografix.com/GPX/1/1"
xmlns:xsi="http://www.w3.org/2001/XMLSchema-instance" 
xsi:schemaLocation="http://www.topografix.com/GPX/1/1 http://www.topografix.com/GPX/1/1/gpx.xsd"
version="1.1" 
creator="gpx-poi.com">
   <wpt lat="1.330986" lon="103.878431">
      <time>2015-11-16T04:07:19Z</time>
   </wpt>
</gpx>